^C:\USERS\MIKAEL\DOWNLOADS\AI_DEVOIR1\BUCKLAND_CHAPTER2-STATE MACHINES\WESTWORLDWITHMESSAGING\DEBUG\BASEGAMEENTITY.OBJ|C:\USERS\MIKAEL\DOWNLOADS\AI_DEVOIR1\BUCKLAND_CHAPTER2-STATE MACHINES\WESTWORLDWITHMESSAGING\DEBUG\CRUDETIMER.OBJ|C:\USERS\MIKAEL\DOWNLOADS\AI_DEVOIR1\BUCKLAND_CHAPTER2-STATE MACHINES\WESTWORLDWITHMESSAGING\DEBUG\ENTITYMANAGER.OBJ|C:\USERS\MIKAEL\DOWNLOADS\AI_DEVOIR1\BUCKLAND_CHAPTER2-STATE MACHINES\WESTWORLDWITHMESSAGING\DEBUG\MAIN.OBJ|C:\USERS\MIKAEL\DOWNLOADS\AI_DEVOIR1\BUCKLAND_CHAPTER2-STATE MACHINES\WESTWORLDWITHMESSAGING\DEBUG\MESSAGEDISPATCHER.OBJ|C:\USERS\MIKAEL\DOWNLOADS\AI_DEVOIR1\BUCKLAND_CHAPTER2-STATE MACHINES\WESTWORLDWITHMESSAGING\DEBUG\MINER.OBJ|C:\USERS\MIKAEL\DOWNLOADS\AI_DEVOIR1\BUCKLAND_CHAPTER2-STATE MACHINES\WESTWORLDWITHMESSAGING\DEBUG\MINEROWNEDSTATES.OBJ|C:\USERS\MIKAEL\DOWNLOADS\AI_DEVOIR1\BUCKLAND_CHAPTER2-STATE MACHINES\WESTWORLDWITHMESSAGING\DEBUG\MINERSWIFE.OBJ|C:\USERS\MIKAEL\DOWNLOADS\AI_DEVOIR1\BUCKLAND_CHAPTER2-STATE MACHINES\WESTWORLDWITHMESSAGING\DEBUG\MINERSWIFEOWNEDSTATES.OBJ
C:\WINDOWS\GLOBALIZATION\SORTING\SORTDEFAULT.NLS
C:\PROGRAM FILES (X86)\WINDOWS KITS\10\LIB\10.0.17763.0\UM\X86\ODBC32.LIB
C:\PROGRAM FILES (X86)\WINDOWS KITS\10\LIB\10.0.17763.0\UM\X86\ODBCCP32.LIB
C:\PROGRAM FILES (X86)\WINDOWS KITS\10\LIB\10.0.17763.0\UM\X86\KERNEL32.LIB
C:\PROGRAM FILES (X86)\WINDOWS KITS\10\LIB\10.0.17763.0\UM\X86\USER32.LIB
C:\PROGRAM FILES (X86)\WINDOWS KITS\10\LIB\10.0.17763.0\UM\X86\GDI32.LIB
C:\PROGRAM FILES (X86)\WINDOWS KITS\10\LIB\10.0.17763.0\UM\X86\WINSPOOL.LIB
C:\PROGRAM FILES (X86)\WINDOWS KITS\10\LIB\10.0.17763.0\UM\X86\COMDLG32.LIB
C:\PROGRAM FILES (X86)\WINDOWS KITS\10\LIB\10.0.17763.0\UM\X86\ADVAPI32.LIB
C:\PROGRAM FILES (X86)\WINDOWS KITS\10\LIB\10.0.17763.0\UM\X86\SHELL32.LIB
C:\PROGRAM FILES (X86)\WINDOWS KITS\10\LIB\10.0.17763.0\UM\X86\OLE32.LIB
C:\PROGRAM FILES (X86)\WINDOWS KITS\10\LIB\10.0.17763.0\UM\X86\OLEAUT32.LIB
C:\PROGRAM FILES (X86)\WINDOWS KITS\10\LIB\10.0.17763.0\UM\X86\UUID.LIB
C:\USERS\MIKAEL\DOWNLOADS\AI_DEVOIR1\BUCKLAND_CHAPTER2-STATE MACHINES\WESTWORLDWITHMESSAGING\DEBUG\CRUDETIMER.OBJ
C:\USERS\MIKAEL\DOWNLOADS\AI_DEVOIR1\BUCKLAND_CHAPTER2-STATE MACHINES\WESTWORLDWITHMESSAGING\DEBUG\BASEGAMEENTITY.OBJ
C:\USERS\MIKAEL\DOWNLOADS\AI_DEVOIR1\BUCKLAND_CHAPTER2-STATE MACHINES\WESTWORLDWITHMESSAGING\DEBUG\ENTITYMANAGER.OBJ
C:\USERS\MIKAEL\DOWNLOADS\AI_DEVOIR1\BUCKLAND_CHAPTER2-STATE MACHINES\WESTWORLDWITHMESSAGING\DEBUG\MAIN.OBJ
C:\USERS\MIKAEL\DOWNLOADS\AI_DEVOIR1\BUCKLAND_CHAPTER2-STATE MACHINES\WESTWORLDWITHMESSAGING\DEBUG\MESSAGEDISPATCHER.OBJ
C:\USERS\MIKAEL\DOWNLOADS\AI_DEVOIR1\BUCKLAND_CHAPTER2-STATE MACHINES\WESTWORLDWITHMESSAGING\DEBUG\MINER.OBJ
C:\USERS\MIKAEL\DOWNLOADS\AI_DEVOIR1\BUCKLAND_CHAPTER2-STATE MACHINES\WESTWORLDWITHMESSAGING\DEBUG\MINEROWNEDSTATES.OBJ
C:\USERS\MIKAEL\DOWNLOADS\AI_DEVOIR1\BUCKLAND_CHAPTER2-STATE MACHINES\WESTWORLDWITHMESSAGING\DEBUG\MINERSWIFE.OBJ
C:\USERS\MIKAEL\DOWNLOADS\AI_DEVOIR1\BUCKLAND_CHAPTER2-STATE MACHINES\WESTWORLDWITHMESSAGING\DEBUG\MINERSWIFEOWNEDSTATES.OBJ
C:\WINDOWS\SYSTEM32\TZRES.DLL
C:\PROGRAM FILES (X86)\WINDOWS KITS\10\LIB\10.0.17763.0\UM\X86\WINMM.LIB
C:\PROGRAM FILES (X86)\MICROSOFT VISUAL STUDIO\2017\ENTERPRISE\VC\TOOLS\MSVC\14.11.25503\LIB\X86\LIBCMTD.LIB
C:\PROGRAM FILES (X86)\MICROSOFT VISUAL STUDIO\2017\ENTERPRISE\VC\TOOLS\MSVC\14.11.25503\LIB\X86\OLDNAMES.LIB
C:\PROGRAM FILES (X86)\MICROSOFT VISUAL STUDIO\2017\ENTERPRISE\VC\TOOLS\MSVC\14.11.25503\LIB\X86\LIBCPMTD.LIB
C:\PROGRAM FILES (X86)\MICROSOFT VISUAL STUDIO\2017\ENTERPRISE\VC\TOOLS\MSVC\14.11.25503\LIB\X86\LIBVCRUNTIMED.LIB
C:\PROGRAM FILES (X86)\WINDOWS KITS\10\LIB\10.0.17763.0\UCRT\X86\LIBUCRTD.LIB
